{"info":{"description":"Service for which owns the customers and their addresses","title":"customer-service","version":"0.0.2","versions":["0.0.1","0.0.2"],"group":"default","links":[{"rel":"repository","href":"https://stash.maxxton.com/projects//repos/customer-service/browse"}]},"paths":{"/api/v1/test2/does-not-exists2":{"get":{"controller":{"$ref":"#/components/TestController2"},"method":{"$ref":"#/components/TestController2/methods/testEnpointDoesntExists()"},"description":"","operationId":"testEnpointDoesntExists","consumes":["application/json"],"produces":["application/json"],"parameters":[],"responses":{}}},"/api/v1/test2/endpoint4/{someVar}":{"get":{"controller":{"$ref":"#/components/TestController2"},"method":{"$ref":"#/components/TestController2/methods/testMisMatchPathVar(Long)"},"description":"","operationId":"testMisMatchPathVar","consumes":["application/json"],"produces":["application/json"],"parameters":[{"type":"integer","required":true,"name":"someVar","in":"path"}],"responses":{},"path":"/api/v1/test2/endpoint4/{someVar}","requestMethod":"get"}},"/api/v1/test2/endpoint5/someStatic":{"get":{"controller":{"$ref":"#/components/TestController2"},"method":{"$ref":"#/components/TestController2/methods/testFullMatch()"},"description":"","operationId":"testFullMatch","consumes":["application/json"],"produces":["application/json"],"parameters":[],"responses":{},"path":"/api/v1/test2/endpoint5/someStatic","requestMethod":"get"}},"/api/v1/test3/endpoint1":{"get":{"controller":{"$ref":"#/components/TestController3"},"method":{"$ref":"#/components/TestController3/methods/testEndpointMatchRequiredRequestParams(boolean)"},"description":"","operationId":"testEndpointMatchRequiredRequestParams","consumes":["application/json"],"produces":["application/json"],"parameters":[{"type":"boolean","required":true,"name":"a","in":"query"}],"responses":{},"path":"/api/v1/test3/endpoint1","requestMethod":"get"}},"/api/v1/test3/endpoint2":{"get":{"controller":{"$ref":"#/components/TestController3"},"method":{"$ref":"#/components/TestController3/methods/testEndpointMatchRequestParams(boolean)"},"description":"","operationId":"testEndpointMatchRequestParams","consumes":["application/json"],"produces":["application/json"],"parameters":[{"type":"boolean","name":"a","in":"query"}],"responses":{},"path":"/api/v1/test3/endpoint2","requestMethod":"get"}},"/api/v1/customers":{"post":{"controller":{"$ref":"#/components/CustomerController"},"method":{"$ref":"#/components/CustomerController/methods/createCustomer(Customer)"},"description":"Create new customer","operationId":"createCustomer","consumes":["application/json"],"produces":["application/json"],"parameters":[{"name":"customer","in":"body","description":"new customer","schema":{"$ref":"#/definitions/com.example.service.customer.domain.Customer"}}],"responses":{"201":{"description":"customer is created"},"409":{"description":"customer with the same email already exists"},"default":{"description":"CREATED customer with a customerId or CONFLICT if customer with the same email already exists","schema":{"$ref":"#/definitions/com.example.service.customer.domain.Customer","default":{"firstName":"Extended kindness trifling","lastName":"Extended kindness trifling","billAddress":"[Address]","customerId":43,"deliverAddress":"[Address]","email":"Extended kindness trifling"}}}}},"get":{"controller":{"$ref":"#/components/CustomerController"},"method":{"$ref":"#/components/CustomerController/methods/getCustomers(Pageable)"},"description":"Request a page of customers","operationId":"getCustomers","consumes":["application/json"],"produces":["application/json"],"parameters":[{"type":"integer","description":"page number","name":"page","in":"query","default":0},{"type":"integer","description":"items per page","name":"size","in":"query","default":20},{"type":"string","description":"sort option","name":"sort","in":"query","default":"asc"}],"responses":{"200":{},"default":{"description":"Page of customers","schema":{"type":"object","properties":{"number":{"type":"number","default":1},"last":{"type":"boolean","default":false},"size":{"type":"number","default":20},"numberOfElements":{"type":"number","default":20},"totalPages":{"type":"number","default":20},"sort":{},"content":{"type":"array","items":{"$ref":"#/definitions/com.example.service.customer.domain.Customer"}},"first":{"type":"boolean","default":true},"totalElements":{"type":"number","default":196}},"default":{"number":1,"last":false,"size":20,"numberOfElements":20,"totalPages":20,"sort":null,"content":[{"firstName":"Extended kindness trifling","lastName":"Extended kindness trifling","billAddress":"[Address]","customerId":93,"deliverAddress":"[Address]","email":"Extended kindness trifling"}],"first":true,"totalElements":196}}}}}},"/api/v1/test2/endpoint1":{"get":{"controller":{"$ref":"#/components/TestController2"},"method":{"$ref":"#/components/TestController2/methods/testMethodNotAllowed()"},"description":"","operationId":"testMethodNotAllowed","consumes":["application/json"],"produces":["application/json"],"parameters":[],"responses":{}}},"/api/v1/test3/endpoint3":{"get":{"controller":{"$ref":"#/components/TestController3"},"method":{"$ref":"#/components/TestController3/methods/testEndpointMissingRequiredRequestParams(boolean)"},"description":"","operationId":"testEndpointMissingRequiredRequestParams","consumes":["application/json"],"produces":["application/json"],"parameters":[{"type":"boolean","required":true,"name":"a","in":"query"}],"responses":{},"path":"/api/v1/test3/endpoint3","requestMethod":"get"}},"/api/v1/test3/endpoint4":{"get":{"controller":{"$ref":"#/components/TestController3"},"method":{"$ref":"#/components/TestController3/methods/testEndpointMissingNotRequiredRequestParams(boolean)"},"description":"","operationId":"testEndpointMissingNotRequiredRequestParams","consumes":["application/json"],"produces":["application/json"],"parameters":[{"type":"boolean","name":"a","in":"query"}],"responses":{},"path":"/api/v1/test3/endpoint4","requestMethod":"get"}},"/api/v1/customers/{customerId}":{"get":{"controller":{"$ref":"#/components/CustomerController"},"method":{"$ref":"#/components/CustomerController/methods/getCustomer(Long,String)"},"description":"Get a specific customer by id","operationId":"getCustomer","consumes":["application/json"],"produces":["application/json"],"parameters":[{"type":"integer","description":"id of the customer","required":true,"name":"customerId","in":"path"},{"type":"string","required":true,"name":"name","in":"query"}],"responses":{"200":{},"404":{"description":"if customer doesn't exists"},"default":{"description":"the customer or null","schema":{"$ref":"#/definitions/com.example.service.customer.domain.Customer","default":{"firstName":"Extended kindness trifling","lastName":"Extended kindness trifling","billAddress":"[Address]","customerId":28,"deliverAddress":"[Address]","email":"Extended kindness trifling"}}}},"path":"/api/v1/customers/{customerId}","requestMethod":"get"},"delete":{"controller":{"$ref":"#/components/CustomerController"},"method":{"$ref":"#/components/CustomerController/methods/removeCustomer(Long)"},"description":"Delete customer by id","operationId":"removeCustomer","consumes":["application/json"],"produces":["application/json"],"parameters":[{"type":"integer","description":"id of the customer","required":true,"name":"customerId","in":"path"}],"responses":{"200":{"description":"the customer is removed"},"404":{"description":"the customer did not exists"},"default":{"description":"OK if the customer is removed, NOT_FOUND if the customer did not exists","schema":{"$ref":"#/definitions/org.springframework.http.ResponseEntity","default":{}}}}}},"/api/v1/test3/endpoint5":{"get":{"controller":{"$ref":"#/components/TestController3"},"method":{"$ref":"#/components/TestController3/methods/testEndpointMismatchTypeRequestParams(boolean)"},"description":"","operationId":"testEndpointMismatchTypeRequestParams","consumes":["application/json"],"produces":["application/json"],"parameters":[{"type":"boolean","name":"a","in":"query"}],"responses":{},"path":"/api/v1/test3/endpoint5","requestMethod":"get"}},"/api/v1/test2/endpoint2/someStatic":{"get":{"controller":{"$ref":"#/components/TestController2"},"method":{"$ref":"#/components/TestController2/methods/testParticalPathVarMatch(String)"},"description":"","operationId":"testParticalPathVarMatch","consumes":["application/json"],"produces":["application/json"],"parameters":[{"type":"string","required":true,"name":"someVar","in":"path"}],"responses":{},"path":"/api/v1/test2/endpoint2/someStatic","requestMethod":"get"}},"/api/v1/test2/endpoint3/{someVar}":{"get":{"controller":{"$ref":"#/components/TestController2"},"method":{"$ref":"#/components/TestController2/methods/testParticalPathStaticMatch()"},"description":"","operationId":"testParticalPathStaticMatch","consumes":["application/json"],"produces":["application/json"],"parameters":[],"responses":{},"path":"/api/v1/test2/endpoint3/{someVar}","requestMethod":"get"}}},"definitions":{"org.springframework.http.ResponseEntity":{"type":"object","sourceLink":"https://stash.maxxton.com/projects//repos/customer-service/browse/org/springframework/http/ResponseEntity.java"},"com.example.service.customer.domain.Address":{"type":"object","description":"","mappings":{"relational":{"tables":["ADDRESS"]}},"properties":{"zipCode":{"type":"string"},"address":{"type":"string"},"city":{"type":"string"},"houseNumber":{"type":"string"},"addressId":{"type":"integer","mappings":{"relational":{"primary":true}}}},"name":"Address","sourceLink":"https://stash.maxxton.com/projects//repos/customer-service/browse/com/example/service/customer/domain/Address.java"},"com.example.service.customer.domain.Customer":{"type":"object","description":"","mappings":{"relational":{"tables":["CUSTOMER"]}},"properties":{"firstName":{"type":"string"},"lastName":{"type":"string"},"billAddress":{"type":"object","description":"","mappings":{"relational":{"tables":["ADDRESS"]}},"properties":{"zipCode":{"type":"string"},"address":{"type":"string"},"city":{"type":"string"},"houseNumber":{"type":"string"},"addressId":{"type":"integer","mappings":{"relational":{"primary":true}}}},"name":"Address","sourceLink":"https://stash.maxxton.com/projects//repos/customer-service/browse/com/example/service/customer/domain/Address.java"},"customerId":{"type":"integer","mappings":{"relational":{"primary":true}}},"deliverAddress":{"type":"object","description":"","mappings":{"relational":{"tables":["ADDRESS"]}},"properties":{"zipCode":{"type":"string"},"address":{"type":"string"},"city":{"type":"string"},"houseNumber":{"type":"string"},"addressId":{"type":"integer","mappings":{"relational":{"primary":true}}}},"name":"Address","sourceLink":"https://stash.maxxton.com/projects//repos/customer-service/browse/com/example/service/customer/domain/Address.java"},"email":{"type":"string"}},"name":"Customer","sourceLink":"https://stash.maxxton.com/projects//repos/customer-service/browse/com/example/service/customer/domain/Customer.java"}},"components":{"CustomerService":{"name":"com.example.service.customer.service.CustomerService","type":"service","file":"com/example/service/customer/service/CustomerService.java","description":"Service for managing CRUD actions on Customers","authors":["Hermans (s.hermans@maxxton.com)"],"annotations":{"Service":{}},"methods":{"removeCustomer(Long)":{"name":"removeCustomer","description":"Remove customer from the repository","parameters":["Long"],"lineNumber":64,"sourceLink":"https://stash.maxxton.com/projects//repos/customer-service/browse/com/example/service/customer/service/CustomerService.java#64"},"getCustomer(Long)":{"name":"getCustomer","description":"Get customer by id","parameters":["Long"],"lineNumber":43,"sourceLink":"https://stash.maxxton.com/projects//repos/customer-service/browse/com/example/service/customer/service/CustomerService.java#43"},"getCustomer(String)":{"name":"getCustomer","description":"Get specific customer by email","parameters":["String"],"lineNumber":34,"sourceLink":"https://stash.maxxton.com/projects//repos/customer-service/browse/com/example/service/customer/service/CustomerService.java#34"},"getCustomers(Pageable)":{"name":"getCustomers","description":"Get a page of customers","parameters":["Pageable"],"lineNumber":25,"sourceLink":"https://stash.maxxton.com/projects//repos/customer-service/browse/com/example/service/customer/service/CustomerService.java#25"},"createCustomer(Customer)":{"name":"createCustomer","description":"Create new customer","parameters":["Customer"],"lineNumber":52,"sourceLink":"https://stash.maxxton.com/projects//repos/customer-service/browse/com/example/service/customer/service/CustomerService.java#52"}},"sourceLink":"https://stash.maxxton.com/projects//repos/customer-service/browse/com/example/service/customer/service/CustomerService.java"},"TestController3":{"name":"com.example.service.customer.controller.TestController3","type":"controller","file":"com/example/service/customer/controller/TestController3.java","description":"","authors":["Hermans"],"annotations":{"RestController":{}},"methods":{"testEndpointMatchRequestParams(boolean)":{"name":"testEndpointMatchRequestParams","description":"","parameters":["boolean"],"lineNumber":18,"sourceLink":"https://stash.maxxton.com/projects//repos/customer-service/browse/com/example/service/customer/controller/TestController3.java#18"},"testEndpointMismatchTypeRequestParams(boolean)":{"name":"testEndpointMismatchTypeRequestParams","description":"","parameters":["boolean"],"lineNumber":27,"sourceLink":"https://stash.maxxton.com/projects//repos/customer-service/browse/com/example/service/customer/controller/TestController3.java#27"},"testEndpointMissingNotRequiredRequestParams(boolean)":{"name":"testEndpointMissingNotRequiredRequestParams","description":"","parameters":["boolean"],"lineNumber":24,"sourceLink":"https://stash.maxxton.com/projects//repos/customer-service/browse/com/example/service/customer/controller/TestController3.java#24"},"testEndpointMissingRequiredRequestParams(boolean)":{"name":"testEndpointMissingRequiredRequestParams","description":"","parameters":["boolean"],"lineNumber":21,"sourceLink":"https://stash.maxxton.com/projects//repos/customer-service/browse/com/example/service/customer/controller/TestController3.java#21"},"testEndpointMatchRequiredRequestParams(boolean)":{"name":"testEndpointMatchRequiredRequestParams","description":"","parameters":["boolean"],"lineNumber":15,"sourceLink":"https://stash.maxxton.com/projects//repos/customer-service/browse/com/example/service/customer/controller/TestController3.java#15"}},"sourceLink":"https://stash.maxxton.com/projects//repos/customer-service/browse/com/example/service/customer/controller/TestController3.java"},"TestController2":{"name":"com.example.service.customer.controller.TestController2","type":"controller","file":"com/example/service/customer/controller/TestController2.java","description":"","authors":["Hermans"],"annotations":{"RestController":{}},"methods":{"testFullMatch()":{"name":"testFullMatch","description":"","lineNumber":30,"sourceLink":"https://stash.maxxton.com/projects//repos/customer-service/browse/com/example/service/customer/controller/TestController2.java#30"},"testMethodNotAllowed()":{"name":"testMethodNotAllowed","description":"","lineNumber":18,"sourceLink":"https://stash.maxxton.com/projects//repos/customer-service/browse/com/example/service/customer/controller/TestController2.java#18"},"testEnpointDoesntExists()":{"name":"testEnpointDoesntExists","description":"","lineNumber":15,"sourceLink":"https://stash.maxxton.com/projects//repos/customer-service/browse/com/example/service/customer/controller/TestController2.java#15"},"testParticalPathStaticMatch()":{"name":"testParticalPathStaticMatch","description":"","lineNumber":24,"sourceLink":"https://stash.maxxton.com/projects//repos/customer-service/browse/com/example/service/customer/controller/TestController2.java#24"},"testMisMatchPathVar(Long)":{"name":"testMisMatchPathVar","description":"","parameters":["Long"],"lineNumber":27,"sourceLink":"https://stash.maxxton.com/projects//repos/customer-service/browse/com/example/service/customer/controller/TestController2.java#27"},"testParticalPathVarMatch(String)":{"name":"testParticalPathVarMatch","description":"","parameters":["String"],"lineNumber":21,"sourceLink":"https://stash.maxxton.com/projects//repos/customer-service/browse/com/example/service/customer/controller/TestController2.java#21"}},"sourceLink":"https://stash.maxxton.com/projects//repos/customer-service/browse/com/example/service/customer/controller/TestController2.java"},"CustomerRepository":{"name":"com.example.service.customer.repository.CustomerRepository","type":"repository","file":"com/example/service/customer/repository/CustomerRepository.java","description":"Repository for persisting Customers","authors":["Hermans (s.hermans@maxxton.com)"],"annotations":{"Repository":{}},"methods":{"findByEmail(String)":{"name":"findByEmail","description":"","parameters":["String"],"lineNumber":14,"sourceLink":"https://stash.maxxton.com/projects//repos/customer-service/browse/com/example/service/customer/repository/CustomerRepository.java#14"}},"sourceLink":"https://stash.maxxton.com/projects//repos/customer-service/browse/com/example/service/customer/repository/CustomerRepository.java"},"CustomerServiceApplication":{"name":"com.example.service.customer.CustomerServiceApplication","type":"application","file":"com/example/service/customer/CustomerServiceApplication.java","description":"Service for which owns the customers and their addresses","authors":["Hermans (s.hermans@maxxton.com)"],"annotations":{"SpringBootApplication":{}},"sourceLink":"https://stash.maxxton.com/projects//repos/customer-service/browse/com/example/service/customer/CustomerServiceApplication.java","methods":{}},"CustomerController":{"name":"com.example.service.customer.controller.CustomerController","type":"controller","file":"com/example/service/customer/controller/CustomerController.java","description":"Controller for handling all customer endpoints","authors":["Hermans (s.hermans@maxxton.com)"],"annotations":{"RestController":{},"RequestMapping":{"properties":{"value":"\"/api/v1/customers\""}}},"methods":{"removeCustomer(Long)":{"name":"removeCustomer","description":"Delete customer by id","parameters":["Long"],"lineNumber":75,"sourceLink":"https://stash.maxxton.com/projects//repos/customer-service/browse/com/example/service/customer/controller/CustomerController.java#75"},"getCustomer(Long,String)":{"name":"getCustomer","description":"Get a specific customer by id","parameters":["Long","String"],"lineNumber":42,"sourceLink":"https://stash.maxxton.com/projects//repos/customer-service/browse/com/example/service/customer/controller/CustomerController.java#42"},"getCustomers(Pageable)":{"name":"getCustomers","description":"Request a page of customers","parameters":["Pageable"],"lineNumber":30,"sourceLink":"https://stash.maxxton.com/projects//repos/customer-service/browse/com/example/service/customer/controller/CustomerController.java#30"},"createCustomer(Customer)":{"name":"createCustomer","description":"Create new customer","parameters":["Customer"],"lineNumber":58,"sourceLink":"https://stash.maxxton.com/projects//repos/customer-service/browse/com/example/service/customer/controller/CustomerController.java#58"}},"sourceLink":"https://stash.maxxton.com/projects//repos/customer-service/browse/com/example/service/customer/controller/CustomerController.java"}},"swagger":"2.0"}